{
  "products": [
    {
      "id": "100",
      "productDesc": "1",
      "productQty": 2,
      "productPrice": 3
    },
    {
      "id": "101",
      "productDesc": "2",
      "productQty": 2,
      "productPrice": 2
    },
    {
      "id": "102",
      "productDesc": "3",
      "productQty": 3,
      "productPrice": 3
    },
    {
      "id": "103",
      "productDesc": "4",
      "productQty": 4,
      "productPrice": 4
    },
    {
      "id": "104",
      "productDesc": "5",
      "productQty": 5,
      "productPrice": 5
    },
    {
      "id": "105",
      "productDesc": "6",
      "productQty": 6,
      "productPrice": 6
    }
  ]
}